Evolución de las medallas olímpicas (1896-2014)
…
# A tibble: 6 × 3
  Medal  Country cantidad
  <fct>  <chr>      <int>
1 Bronze AFG            2
2 Silver AHO            1
3 Gold   ALG            5
4 Silver ALG            2
5 Bronze ALG            8
6 Gold   ANZ           20

medallas_por_tipo %>% 
  filter(Country%in%top_10$Country)

# A tibble: 30 × 3
   Medal  Country cantidad
   <fct>  <chr>      <int>
 1 Gold   AUS          312
 2 Silver AUS          405
 3 Bronze AUS          472
 4 Gold   FRA          408
 5 Silver FRA          491
 6 Bronze FRA          497
 7 Gold   GBR          546
 8 Silver GBR          621
 9 Bronze GBR          553
10 Gold   GER          452
# ℹ 20 more rows
…
ranking_20años <- medallas_20años %>% 
  group_by(Periodo,Country) %>% 
  summarise(cantidad=n()) %>% 
  ungroup() 

`summarise()` has grouped output by 'Periodo'. You can override using the
`.groups` argument.

top5_20años <- ranking_20años %>% 
  group_by(Periodo) %>% 
  slice_max(cantidad,n=5)
top5_20años

# A tibble: 30 × 3
# Groups:   Periodo [6]
   Periodo   Country cantidad
   <chr>     <chr>      <int>
 1 1896-1915 USA          633
 2 1896-1915 GBR          594
 3 1896-1915 SWE          272
 4 1896-1915 FRA          256
 5 1896-1915 GER          160
 6 1916-1935 USA          656
 7 1916-1935 FRA          336
 8 1916-1935 SWE          293
 9 1916-1935 ITA          282
10 1916-1935 GBR          262
# ℹ 20 more rows
…
Medallas de USA a lo largo del tiempo

evo_USA<- medallas %>% 
  filter(Country=="USA") %>%
  group_by(Year) %>% 
  summarise(cantidad=n())
 
evo_USA

# A tibble: 26 × 2
    Year cantidad
   <dbl>    <int>
 1  1896       20
 2  1900       55
 3  1904      394
 4  1908       63
 5  1912      101
 6  1920      193
 7  1924      198
 8  1928       84
 9  1932      181
10  1936       92
# ℹ 16 more rows
…
paises <- c("USA","GBR","FRA","SWE","GER")

evo_paises <- medallas %>% 
  filter(Country %in% paises) %>% 
  group_by(Country,Year) %>% 
  summarise(cantidad=n()) %>% 
  ungroup()

`summarise()` has grouped output by 'Country'. You can override using the
`.groups` argument.

evo_paises

# A tibble: 119 × 3
   Country  Year cantidad
   <chr>   <dbl>    <int>
 1 FRA      1896       11
 2 FRA      1900      185
 3 FRA      1908       35
 4 FRA      1912       25
 5 FRA      1920      141
 6 FRA      1924      122
 7 FRA      1928       36
 8 FRA      1932       37
 9 FRA      1936       43
10 FRA      1948       68
# ℹ 109 more rows
…
paises2 <- c("USA","RUS","AUS","CHN","GER","URS")

evo_paises2 <- medallas %>% 
  filter(Country %in% paises2) %>% 
  group_by(Country,Year) %>% 
  summarise(cantidad=n()) %>% 
  ungroup()

`summarise()` has grouped output by 'Country'. You can override using the
`.groups` argument.

evo_paises2

# A tibble: 87 × 3
   Country  Year cantidad
   <chr>   <dbl>    <int>
 1 AUS      1896        2
 2 AUS      1900        5
 3 AUS      1920        6
 4 AUS      1924       10
 5 AUS      1928        4
 6 AUS      1932        5
 7 AUS      1936        1
 8 AUS      1948       16
 9 AUS      1952       20
10 AUS      1956       61
# ℹ 77 more rows
…
